<svg width="120" height="24" viewBox="0 0 120 24" fill="none" xmlns="http://www.w3.org/2000/svg">
<path d="M27.3668 17.7496V13.7135H36.1621V10.5723H27.3668V6.45321H36.1621V3.18164H24.0182V21.0805H36.1621V17.7496H27.3668Z" fill="black"/>
<path d="M63.2356 17.7496V13.7135H72.0428V10.5723H63.2356V6.45321H72.0428V3.18164H59.881V21.0805H72.0428V17.7496H63.2356Z" fill="black"/>
<path d="M46.0301 17.9632V6.35273V6.3468C46.0242 3.18191 42.8593 3.1582 42.8593 3.1582H42.6519V21.0807H55.2285V17.9632H46.0301Z" fill="black"/>
<path d="M107.283 6.93921L110.608 14.5551H103.964L107.283 6.93921ZM105.44 3.18164L98.8258 17.9215L97.4567 20.9679L97.4093 21.0805H101.066L102.601 17.7081V17.7022H111.959V17.7081L113.494 21.0805H117.145L117.098 20.9679L115.729 17.9215L109.121 3.18164H105.44Z" fill="black"/>
<path d="M93.3554 3.18757C93.0827 3.1935 90.0067 3.36537 90.0067 6.58953V14.2825L81.241 3.18757H78.5029V18.7453V21.0864C78.5029 21.0864 81.8811 21.0568 81.8811 17.6844V9.00765L91.2869 21.1042H93.385V5.52271V3.18164L93.3554 3.18757Z" fill="black"/>
<path d="M17.8306 3.18164H5.27776H3.07893C3.07893 3.18164 3.10264 6.34653 6.27346 6.35246H12.9233L3.84941 19.1365V21.0805H17.8306V17.8859H8.54934L17.8366 4.77001V3.18164H17.8306Z" fill="black"/>
</svg>
